<?xml version="1.0" encoding="UTF-8"?>
<svg width="438px" height="336px" viewBox="0 0 438 336" version="1.1" xmlns="http://www.w3.org/2000/svg" xmlns:xlink="http://www.w3.org/1999/xlink">
    <!-- Generator: Sketch 63.1 (92452) - https://sketch.com -->
    <title>Chevron Forward 3X</title>
    <desc>Created with Sketch.</desc>
    <g id="Chevron-Forward-3X" stroke="none" stroke-width="1" fill="none" fill-rule="evenodd" stroke-linecap="round" stroke-linejoin="round">
        <g id="chevron-forward-outline" transform="translate(264.000000, 24.000000)" stroke="#000000" stroke-width="48">
            <polyline id="Path" points="0 0 144 144 0 288"></polyline>
        </g>
        <g id="chevron-forward-outline" transform="translate(144.000000, 24.000000)" stroke="#000000" stroke-width="48">
            <polyline id="Path" points="0 0 144 144 0 288"></polyline>
        </g>
        <g id="chevron-forward-outline" transform="translate(24.000000, 24.000000)" stroke="#000000" stroke-width="48">
            <polyline id="Path" points="0 0 144 144 0 288"></polyline>
        </g>
    </g>
</svg>